{
  "profiles": {
    "Prod": {
      "commandName": "Docker",
      "launchBrowser": true,
      "launchUrl": "swagger",
      "environmentVariables": {
        "ASPNETCORE_ENVIRONMENT": "Development",
        "ASPNETCORE_URLS": "https://+:5000;https://+:8080" 
      },
      "httpPort": 5000,
      "useSSL": true,
      "sslPort": 8080
    }, 
    "Magazine": {
      "commandName": "Project",
      "launchBrowser": true,
      "launchUrl": "https://qa-academy-magazine-aaenva-api.jarvis.syberry.net/",
      "environmentVariables": {
        "ASPNETCORE_ENVIRONMENT": "Development"
      },
      "dotnetRunMessages": true,
      "applicationUrl": "https://localhost:8080;http://localhost:5242"
    },
    "IIS Express": {
      "commandName": "IISExpress",
      "launchBrowser": true,
      "launchUrl": "swagger",
      "environmentVariables": {
        "ASPNETCORE_ENVIRONMENT": "Development"
      }
    },
    "Docker": {
      "commandName": "Docker",
      "launchBrowser": true,
      "launchUrl": "https://qa-academy-magazine-aaenva-api.jarvis.syberry.net/",
      "publishAllPorts": true,
      "useSSL": true
    }
  },
  "$schema": "https://json.schemastore.org/launchsettings.json",
  "iisSettings": {
    "windowsAuthentication": false,
    "anonymousAuthentication": true,
    "iisExpress": {
      "applicationUrl": "http://localhost:53223",
      "sslPort": 8080
    }
  }
}